Prise en main • melodi
…
La fonction get_catalog() permet de lister l’ensemble
des jeux de données disponibles sur le catalogue de données de
l’Insee.

Chaque jeux de données (dataset, DS) dispose d’un
identifiant unique (identifier) qui sera utile au
requêtage.

Une séléction de métadonnées est également proposé : description du
jeu de données, date de dernière mise à jour, nombre de lignes…

get_catalog()
#> Request all catalog : https://api.insee.fr/melodi/catalog/all
#> # A tibble: 76 × 10
#>    identifier                 title_content subtitle_content description_content
#>    <chr>                      <chr>         <chr>            <chr>              
#>  1 DD_CNA_AGREGATS            Produit Inté… Comptes nationa… "Le produit intéri…
#>  2 DD_CNA_APU                 Comptes des … Comptes nationa… "Le secteur instit…
#>  3 DD_CNA_BRANCHES            Activité des… Comptes nationa… "Données annuelles…
#>  4 DD_CNA_CONSO_MENAGES_COIC… Consommation… Comptes nationa… "Données annuelles…
#>  5 DD_CNA_CONSO_MENAGES_PROD… Consommation… Comptes nationa… "Données annuelles…
#>  6 DD_CNA_ECH_EXT             Échanges ext… Comptes nationa… "Données annuelles…
#>  7 DD_CNA_PATRIMOINE          Comptes de p… Comptes nationa… "Le patrimoine nat…
#>  8 DD_CNA_PATRIMOINE_BRANCHES Comptes de p… Comptes nationa… "Le patrimoine nat…
#>  9 DD_CNA_TEE                 Tableau écon… Comptes nationa… "Le tableau économ…
#> 10 DD_EEC_ANNUEL              Activité, em… Enquête Emploi … "Les données sont …
#> # ℹ 66 more rows
#> # ℹ 6 more variables: abstract_content <chr>, temporal_startPeriod <date>,
#> #   temporal_endPeriod <date>, modified <date>, numObservations <int>,
#> #   numSeries <int>
…
